<svg width="0" height="0" class="d-none">
    <symbol id="search" viewBox="0 0 15 16" fill="none" xmlns="http://www.w3.org/2000/svg">
        <path d="M14.8167 14.7898L10.5511 10.5399C11.3774 9.52302 11.8749 8.23091 11.8749 6.82362C11.8749 3.56191 9.21113 0.907959 5.93742 0.907959C2.6637 0.907959 0 3.56189 0 6.82359C0 10.0853 2.66373 12.7392 5.93745 12.7392C7.34992 12.7392 8.64679 12.2436 9.66739 11.4204L13.933 15.6703C14.0548 15.7917 14.2148 15.8528 14.3749 15.8528C14.5349 15.8528 14.6949 15.7917 14.8167 15.6703C15.0611 15.4268 15.0611 15.0333 14.8167 14.7898ZM5.92105 11.9199C3.33607 11.9199 0.789474 9.38271 0.789474 6.80722C0.789474 4.23172 3.33607 1.69453 5.92105 1.69453C8.50603 1.69453 11.0526 4.23172 11.0526 6.80722C11.0526 9.38271 8.50601 11.9199 5.92105 11.9199Z" fill="currentColor"/>
    </symbol>
    <symbol id="profile" viewBox="0 0 15 16" fill="none" xmlns="http://www.w3.org/2000/svg">
        <path d="M12.8033 10.5689C11.9864 9.7551 11.0141 9.15261 9.95329 8.78789C11.0895 8.00822 11.8359 6.70339 11.8359 5.22794C11.8359 2.84591 9.89083 0.907959 7.5 0.907959C5.10917 0.907959 3.16406 2.84591 3.16406 5.22794C3.16406 6.70339 3.91052 8.00822 5.04674 8.78789C3.9859 9.15261 3.01359 9.7551 2.19671 10.5689C0.780146 11.9803 0 13.8568 0 15.8528H0.789474C0.789474 12.3762 4.01065 9.16692 7.5 9.16692C10.9893 9.16692 14.2105 12.3762 14.2105 15.8528H15C15 13.8568 14.2199 11.9803 12.8033 10.5689ZM7.5 8.38035C5.75534 8.38035 4.33594 6.9662 4.33594 5.22794C4.33594 3.48967 5.75534 2.07552 7.5 2.07552C9.24466 2.07552 10.6641 3.48967 10.6641 5.22794C10.6641 6.9662 9.24466 8.38035 7.5 8.38035Z" fill="currentColor"/>
    </symbol>
    <symbol id="favorites" viewBox="0 0 17 15" fill="none" xmlns="http://www.w3.org/2000/svg">
        <path d="M12.1797 0.000350659C10.7616 -0.00772644 9.41346 0.656044 8.49998 1.81212C7.59222 0.648143 6.24033 -0.0175155 4.82023 0.000350659C2.15808 0.000350659 0 2.30035 0 5.13756C0 9.99963 7.96201 14.7469 8.28481 14.9304C8.41505 15.0232 8.58491 15.0232 8.71519 14.9304C9.03799 14.7469 17 10.0684 17 5.13756C17 2.30035 14.8419 0.000350659 12.1797 0.000350659ZM8.49998 14.0131C7.25188 13.2333 0.860761 9.08226 0.860761 5.13756C0.860761 2.80701 2.63348 0.917672 4.82027 0.917672C6.15939 0.898928 7.4126 1.6188 8.13418 2.82119C8.28069 3.03651 8.56329 3.08449 8.76532 2.9283C8.80391 2.89845 8.83785 2.86232 8.86582 2.82119C10.0626 0.870615 12.5164 0.323303 14.3466 1.59874C15.467 2.37954 16.1414 3.71081 16.1392 5.13752C16.1392 9.12809 9.74808 13.2562 8.49998 14.0131Z" fill="currentColor"/>
    </symbol>
    <symbol id="cart" viewBox="0 0 15 16" fill="none" xmlns="http://www.w3.org/2000/svg">
        <path d="M12.6633 4.59647H10.1969V3.80983C10.1969 2.20973 8.86836 0.907959 7.23522 0.907959C5.60211 0.907959 4.27361 2.20973 4.27361 3.80983V4.59647H2.14859C1.9694 4.59647 1.82406 4.73875 1.82406 4.91445L0 15.5347C0 15.7104 0.145218 15.8528 0.324698 15.8528H14.6752C14.8546 15.8528 15 15.7104 15 15.5347L12.9879 4.91445C12.9879 4.73872 12.8426 4.59647 12.6633 4.59647ZM4.92255 3.80983C4.92255 2.56036 5.9601 1.54396 7.23506 1.54396C8.51028 1.54396 9.54776 2.56055 9.54776 3.80983V4.59647H4.92255V3.80983ZM14.3509 15.2167H0.649105L2.47293 5.23231H4.27332V6.63263C4.11673 6.73534 4.01379 6.90996 4.01379 7.10834C4.01379 7.42437 4.27503 7.68071 4.59785 7.68071C4.92029 7.68071 5.18202 7.42459 5.18202 7.10834C5.18202 6.9098 5.07878 6.73534 4.92226 6.63263V5.23231H9.54792V6.63263C9.39134 6.73534 9.28826 6.90996 9.28826 7.10834C9.28826 7.42437 9.5496 7.68071 9.87242 7.68071C10.1949 7.68071 10.4566 7.42459 10.4566 7.10834C10.4566 6.9098 10.3532 6.73534 10.1967 6.63263V5.23231H12.3386L14.3509 15.2167Z" fill="currentColor"/>
    </symbol>
    <symbol id="remove" viewBox="0 0 8 8" fill="none" xmlns="http://www.w3.org/2000/svg">
        <path d="M4.44172 4.00075L7.90823 0.53422C8.03028 0.412173 8.03028 0.214298 7.90823 0.0922674C7.78618 -0.0297636 7.58831 -0.0297792 7.46628 0.0922674L3.99975 3.55879L0.533243 0.0922674C0.411197 -0.0297792 0.213322 -0.0297792 0.0912908 0.0922674C-0.0307402 0.214314 -0.0307558 0.412189 0.0912908 0.53422L3.5578 4.00073L0.0912908 7.46726C-0.0307558 7.5893 -0.0307558 7.78718 0.0912908 7.90921C0.152306 7.97022 0.232291 8.00072 0.312275 8.00072C0.392259 8.00072 0.472228 7.97022 0.533259 7.90921L3.99975 4.4427L7.46626 7.90921C7.52728 7.97022 7.60726 8.00072 7.68724 8.00072C7.76723 8.00072 7.8472 7.97022 7.90823 7.90921C8.03028 7.78716 8.03028 7.58929 7.90823 7.46726L4.44172 4.00075Z" fill="currentColor"/>
    </symbol>
    <symbol id="phone" viewBox="0 0 17 17" fill="none" xmlns="http://www.w3.org/2000/svg">
        <path d="M11.5093 16.284C11.5827 16.2876 11.6527 16.2911 11.7261 16.2911C12.5096 16.2911 13.163 15.9902 13.6765 15.3989C13.6798 15.3954 13.6865 15.3883 13.6898 15.3848C13.8732 15.1511 14.0799 14.9387 14.3 14.7157C14.45 14.5634 14.6034 14.4077 14.7467 14.2448C15.4302 13.4872 15.4269 12.5277 14.7401 11.7984L12.8396 9.78045C12.5129 9.41934 12.1228 9.22816 11.7094 9.22816C11.2993 9.22816 10.9059 9.4158 10.5691 9.77337L9.44554 10.9665C9.34552 10.9063 9.24216 10.8532 9.14214 10.8001C9.01545 10.7328 8.89875 10.6691 8.7954 10.6018C7.76517 9.9079 6.83163 9.00158 5.93809 7.83681C5.48799 7.23496 5.19126 6.73223 4.98121 6.21534C5.27461 5.93212 5.54801 5.63827 5.8114 5.3515C5.90809 5.24883 6.00477 5.14262 6.1048 5.03641C6.81829 4.27879 6.81829 3.3406 6.1048 2.58651L5.16125 1.5846C5.05123 1.46777 4.94454 1.35094 4.83785 1.23765C4.6278 1.01107 4.41108 0.773863 4.19437 0.561444C3.86763 0.214492 3.48088 0.0339355 3.07079 0.0339355C2.66403 0.0339355 2.27061 0.214492 1.93053 0.561444L0.746933 1.81472C0.313503 2.27496 0.0667815 2.83433 0.0134362 3.48221C-0.0465772 4.28941 0.0934541 5.14616 0.453535 6.17994C1.01033 7.77663 1.84718 9.26002 3.08746 10.8461C4.59779 12.7579 6.41153 14.2696 8.48533 15.3352C9.2755 15.7353 10.3324 16.2026 11.5093 16.284ZM3.7176 10.2903C2.53733 8.78208 1.74716 7.38011 1.22371 5.87901C0.900301 4.95499 0.780274 4.2363 0.830285 3.55302C0.86696 3.11048 1.027 2.74228 1.32706 2.4272L2.50399 1.17746C2.68403 0.993364 2.88074 0.897775 3.07412 0.897775C3.26416 0.897775 3.45087 0.993364 3.63091 1.181C3.84096 1.38988 4.04434 1.60938 4.25772 1.8395C4.36441 1.95633 4.47443 2.0767 4.58779 2.19353L5.53134 3.19545C5.91809 3.60612 5.91809 4.00972 5.53134 4.4204C5.43131 4.52661 5.33129 4.63282 5.2346 4.73903C4.9412 5.05412 4.66781 5.3515 4.36441 5.63827C4.35774 5.64535 4.35441 5.64889 4.34774 5.65597C4.07768 5.94274 4.11769 6.21888 4.18437 6.42422C4.1877 6.43484 4.19104 6.44192 4.19437 6.45254C4.43776 7.07564 4.78117 7.66688 5.30795 8.37494C6.25816 9.61759 7.25839 10.5841 8.3653 11.3311C8.502 11.4232 8.64536 11.501 8.78539 11.5754C8.91209 11.6427 9.02878 11.7064 9.13214 11.7737C9.14548 11.7807 9.15548 11.7878 9.16881 11.7949C9.2755 11.8515 9.37886 11.8799 9.48555 11.8799C9.74894 11.8799 9.91565 11.7028 9.96899 11.6427L11.1526 10.3858C11.3326 10.1947 11.526 10.0955 11.716 10.0955C11.9494 10.0955 12.1395 10.2513 12.2628 10.3858L14.1699 12.4109C14.6367 12.9066 14.4233 13.3526 14.1599 13.6465C14.0266 13.7987 13.8865 13.9403 13.7398 14.0926C13.5165 14.3191 13.2864 14.5563 13.0764 14.8219C12.7163 15.2325 12.2895 15.4237 11.7327 15.4237C11.6794 15.4237 11.6227 15.4202 11.5693 15.4166C10.5325 15.3458 9.57224 14.9175 8.84874 14.5528C6.87497 13.5438 5.15125 12.11 3.7176 10.2903Z" fill="currentColor"/>
        <path d="M8.92875 3.19434C8.70537 3.15539 8.49532 3.31471 8.45864 3.54837C8.42197 3.78557 8.572 4.00861 8.79205 4.04756C9.70892 4.21395 10.5424 4.6742 11.2093 5.37872C11.8727 6.08325 12.3062 6.97187 12.4629 7.94546C12.4962 8.15788 12.6696 8.30658 12.8663 8.30658C12.8896 8.30658 12.913 8.30304 12.9363 8.2995C13.1597 8.26055 13.3097 8.03397 13.2697 7.80031C13.0863 6.6497 12.5729 5.59822 11.7894 4.76624C10.9992 3.93073 10.0123 3.38906 8.92875 3.19434Z" fill="currentColor"/>
        <path d="M15.8336 8.15776C15.857 8.15776 15.8803 8.15422 15.9037 8.15068C16.127 8.11174 16.2771 7.88516 16.2371 7.65149C15.9337 5.7468 15.0868 4.01558 13.7899 2.63839C12.4896 1.26121 10.8592 0.361965 9.06547 0.0397959C8.84208 0.000852349 8.63204 0.160167 8.59536 0.393828C8.55869 0.63103 8.70872 0.854071 8.92877 0.893014C10.5525 1.18686 12.0328 2.00114 13.2097 3.25087C14.3867 4.50061 15.1535 6.07251 15.4302 7.79665C15.4636 8.00907 15.6369 8.15776 15.8336 8.15776Z" fill="currentColor"/>
    </symbol>
    <symbol id="longline" viewBox="0 0 201 8" fill="none" xmlns="http://www.w3.org/2000/svg">
        <path d="M0.646447 3.64645C0.451184 3.84171 0.451184 4.15829 0.646447 4.35355L3.82843 7.53553C4.02369 7.7308 4.34027 7.7308 4.53553 7.53553C4.7308 7.34027 4.7308 7.02369 4.53553 6.82843L1.70711 4L4.53553 1.17157C4.7308 0.976311 4.7308 0.659728 4.53553 0.464466C4.34027 0.269204 4.02369 0.269204 3.82843 0.464466L0.646447 3.64645ZM1 4.5L201 4.5V3.5L1 3.5V4.5Z" fill="currentColor"/>
    </symbol>
    <symbol id="like" viewBox="0 0 16 14" fill="none" xmlns="http://www.w3.org/2000/svg">
        <path d="M11.4633 0.377488C10.1286 0.370355 8.85973 0.956532 7.99998 1.97747C7.14562 0.949555 5.87325 0.36171 4.53668 0.377488C2.03113 0.377488 0 2.40862 0 4.91417C0 9.20787 7.49366 13.4002 7.79747 13.5623C7.92005 13.6442 8.07992 13.6442 8.20253 13.5623C8.50634 13.4002 16 9.26862 16 4.91417C16 2.40862 13.9688 0.377488 11.4633 0.377488ZM7.99998 12.7521C6.8253 12.0636 0.810128 8.39774 0.810128 4.91417C0.810128 2.85606 2.47857 1.18758 4.53672 1.18758C5.79708 1.17102 6.97656 1.80674 7.6557 2.86858C7.79359 3.05872 8.05956 3.1011 8.24971 2.96317C8.28603 2.93681 8.31798 2.9049 8.3443 2.86858C9.47064 1.14602 11.7801 0.662688 13.5027 1.78903C14.5572 2.47855 15.1919 3.65421 15.1898 4.91413C15.1899 8.43821 9.17466 12.0838 7.99998 12.7521Z" fill="currentColor"/>
    </symbol>
    <symbol id="arrow_r" viewBox="0 0 41 8" fill="none" xmlns="http://www.w3.org/2000/svg">
        <path d="M40.3536 4.35356C40.5488 4.15829 40.5488 3.84171 40.3536 3.64645L37.1716 0.464469C36.9763 0.269207 36.6597 0.269207 36.4645 0.464469C36.2692 0.659731 36.2692 0.976314 36.4645 1.17158L39.2929 4L36.4645 6.82843C36.2692 7.02369 36.2692 7.34027 36.4645 7.53554C36.6597 7.7308 36.9763 7.7308 37.1716 7.53554L40.3536 4.35356ZM-4.37114e-08 4.5L40 4.5L40 3.5L4.37114e-08 3.5L-4.37114e-08 4.5Z" fill="currentColor"/>
    </symbol>
    <symbol id="arrow_l" viewBox="0 0 41 8" fill="none" xmlns="http://www.w3.org/2000/svg">
        <path d="M0.646447 3.64645C0.451184 3.84171 0.451184 4.15829 0.646447 4.35355L3.82843 7.53553C4.02369 7.7308 4.34027 7.7308 4.53553 7.53553C4.7308 7.34027 4.7308 7.02369 4.53553 6.82843L1.70711 4L4.53553 1.17157C4.7308 0.976311 4.7308 0.659729 4.53553 0.464466C4.34027 0.269204 4.02369 0.269204 3.82843 0.464466L0.646447 3.64645ZM1 4.5L41 4.5L41 3.5L1 3.5L1 4.5Z" fill="currentColor"/>
    </symbol>
    <symbol id="size" viewBox="0 0 13 13" fill="none" xmlns="http://www.w3.org/2000/svg">
        <path d="M12.2065 0.25H0.793481C0.49375 0.25 0.25 0.49375 0.25 0.793481V12.2065C0.25 12.5063 0.49375 12.75 0.793213 12.75H12.2065C12.5063 12.75 12.75 12.5063 12.75 12.2065V0.793481C12.75 0.49375 12.5063 0.25 12.2065 0.25ZM4.59783 8.94565V6.22827H8.40217V8.94565H4.59783ZM8.40217 9.48914V12.2065H4.59783V9.48914H8.40217ZM8.40217 2.96738V5.68477H4.59783V2.96738H8.40217ZM12.2065 2.96738V5.68477H8.94565V2.96738H12.2065ZM4.05435 5.68479H0.793481V2.96738H4.05435V5.68479ZM0.793481 6.22827H4.05435V8.94565H0.793481V6.22827ZM8.94565 6.22827H12.2065V8.94565H8.94565V6.22827ZM12.2065 0.793481V2.42393H0.793481V0.793481H12.2065ZM0.793481 9.48914H4.05435V12.2065H0.793481V9.48914ZM8.94565 12.2065V9.48914H12.2065V12.2065H8.94565Z" fill="currentColor"/>
    </symbol>
    <symbol id="search-catalog" viewBox="0 0 12 13" fill="none" xmlns="http://www.w3.org/2000/svg">
        <path d="M11.8864 11.939L8.78811 8.88301C9.59945 7.99942 10.098 6.83087 10.098 5.54499C10.0976 2.79428 7.83725 0.564697 5.04879 0.564697C2.26032 0.564697 0 2.79428 0 5.54499C0 8.29571 2.26032 10.5253 5.04879 10.5253C6.25359 10.5253 7.35862 10.1076 8.2266 9.41313L11.3369 12.4812C11.4884 12.6308 11.7345 12.6308 11.886 12.4812C12.0379 12.3315 12.0379 12.0886 11.8864 11.939ZM5.04879 9.75904C2.68944 9.75904 0.776827 7.87235 0.776827 5.54499C0.776827 3.21763 2.68944 1.33095 5.04879 1.33095C7.40815 1.33095 9.32074 3.21763 9.32074 5.54499C9.32074 7.87235 7.40815 9.75904 5.04879 9.75904Z" fill="currentColor"/>
    </symbol>
    <symbol id="unselect" viewBox="0 0 8 8" fill="none" xmlns="http://www.w3.org/2000/svg">
        <path d="M1.164 7.36898L0.612 6.81698L3.528 3.90098L0.612 0.984984L1.152 0.444984L4.068 3.36098L6.984 0.444984L7.524 0.996984L4.62 3.91298L7.524 6.81698L6.972 7.35698L4.068 4.45298L1.164 7.36898Z" fill="currentColor"/>
    </symbol>
</svg>
