<svg width="90" height="25" viewBox="0 0 90 25" fill="none" xmlns="http://www.w3.org/2000/svg">
<path fill-rule="evenodd" clip-rule="evenodd" d="M60.7793 25H67.1751L69.9231 17.1361L72.7803 14.7257L75.0309 21.8374C75.7269 24.0355 76.4434 25 78.0061 25H82.9029L77.8512 11.0448L90.0001 0H82.1543L74.7796 7.86405C73.9205 8.77952 73.0514 9.6806 72.1801 10.7568H72.1059L75.7883 0H69.3918L60.7793 25Z" fill="#2E2E2E"/>
<path fill-rule="evenodd" clip-rule="evenodd" d="M60.5034 0.000990571C62.5091 0.00131937 64.4547 0.00163826 66.084 0.00178237L64.7638 4.12939C64.3489 5.42624 63.2958 6.04667 60.9745 6.04667C56.9442 6.04667 50.9807 6.04595 46.95 6.04524L48.2701 1.91765C48.6849 0.620083 49.7379 0 52.0592 0C54.4603 0 57.5475 0.00050605 60.5034 0.000990571ZM48.8041 9.47679C52.8342 9.47679 58.7981 9.4775 62.8288 9.47857L61.5086 13.606C61.0937 14.9032 60.0406 15.5233 57.7192 15.5233C53.6889 15.5233 47.7254 15.5226 43.6946 15.5215L45.0148 11.3945C45.4296 10.097 46.4827 9.47679 48.8041 9.47679ZM59.4135 18.9548C55.3831 18.954 49.4195 18.9533 45.3892 18.9533C43.0675 18.9533 42.0147 19.5737 41.6 20.8702L40.2798 24.9984C44.3105 24.9987 50.274 25 54.3045 25C56.6257 25 57.6788 24.3794 58.0936 23.0822L59.4135 18.9548Z" fill="#2E2E2E"/>
<path fill-rule="evenodd" clip-rule="evenodd" d="M31.7787 6.02143L35.2112 6.02286C38.1357 6.02357 37.4682 9.62411 35.9881 13.1333C34.6839 16.2262 32.3725 18.9556 29.615 18.9552L23.8928 18.9545C21.6104 18.9545 20.5581 19.5749 20.1142 20.8714L18.7014 24.9993L22.8974 25L26.9991 24.9663C30.6365 24.9367 33.6144 24.6776 37.0968 21.5924C40.777 18.3334 45.0679 9.86684 44.3327 4.96988C43.7568 1.13246 41.6651 0.00178228 36.5999 0.00142582L27.3697 0L21.9954 15.5055L25.4101 15.5098C27.4424 15.512 28.4623 15.5372 29.5434 12.6695L31.7787 6.02143Z" fill="#2E2E2E"/>
<path fill-rule="evenodd" clip-rule="evenodd" d="M15.999 6.04298L13.4173 6.04369C8.24558 6.04619 3.81391 18.9574 9.92887 18.9552L13.8579 18.9545C16.1239 18.9545 17.8061 19.7702 17.0613 21.9698L16.0348 24.9993L11.8678 25L8.47829 24.9663C4.1421 24.9236 1.34395 22.8164 0.336427 19.6168C-0.753855 16.1544 0.785431 8.9328 5.25303 4.3067C7.84525 1.62294 11.436 0.00178228 16.0399 0.00142582L24.5455 0L23.2159 3.78377C22.3568 6.22851 20.6017 6.04619 19.6001 6.04583L15.999 6.04298Z" fill="#2E2E2E"/>
</svg>
